{
  "base": "6.3.0",
  "conda": "6.3.0",
  "coverage": "6.3.0",
  "data": "6.3.0",
  "doc": "6.3.0",
  "git": "6.3.0",
  "gitlab": "6.3.0",
  "glabbase": "1.8.2",
  "glabpkg": "1.8.2",
  "license": "6.3.0",
  "pypi": "6.3.0",
  "pysetup": "6.3.0",
  "reqs": "6.3.0",
  "sphinx": "6.3.0",
  "src": "6.3.0",
  "test": "6.3.0",
  "version": "6.3.0"
}